{
    "data":[
        {
            "Nombre":"Claudia Sánchez Zepeda",
            "Correo":"claudiasan@gmail.com",
            "Club": "Alpha 2",
            "Membresia":"Platino",
            "Estatus": "Vigente",
            "Saldo": "123"
        },
        {
          "Nombre":"Pascual Guerrero Colmenero",
          "Correo":"pascualguerreroc@gmail.com",
          "Club": "Cimera",
          "Membresia":"Familiar",
          "Estatus": "Vigente",
          "Saldo": "250.00"
      }
    ]
}
